// Jest Snapshot v1, https://goo.gl/fbAQLP

exports[`Renders error 1`] = `
<DocumentFragment>
  <div>
    Error loading this page. Please refresh and try again
  </div>
</DocumentFragment>
`;

exports[`Renders loading 1`] = `
<DocumentFragment>
  <div>
    Loading...
  </div>
</DocumentFragment>
`;

exports[`Renders normally 1`] = `
<DocumentFragment>
  <div>
    <div
      class="sc-bdVaJa dbMbMy"
    >
      <div
        class="sc-htpNat fjMaNE"
      >
        foo0
      </div>
      <div
        class="sc-bwzfXH dYifnq"
      >
        <div
          class="sc-bxivhb dFqwLT"
        >
          <img
            class="sc-ifAKCX jLFfAD"
            src="https://via.placeholder.com/1500"
          />
        </div>
        <div
          class="sc-EHOje edBWYo"
        >
          <div
            class="sc-bZQynM fKQqKY"
          >
            <span>
              id
            </span>
            <span>
              0
            </span>
          </div>
          <div
            class="sc-bZQynM fKQqKY"
          >
            <span>
              number
            </span>
            <span>
              000
            </span>
          </div>
          <div
            class="sc-bZQynM fKQqKY"
          >
            <span>
              max CP
            </span>
            <span>
              9233
            </span>
          </div>
          <div
            class="sc-bZQynM fKQqKY"
          >
            <span>
              max HP
            </span>
            <span>
              1017
            </span>
          </div>
          <div
            class="sc-bZQynM fKQqKY"
          >
            <span>
              types
            </span>
            <span>
              type 1,  type 2
            </span>
          </div>
          <a
            href="/stylindex-sample/pokemon/0"
          >
            More Information
          </a>
        </div>
      </div>
    </div>
    <div
      class="sc-bdVaJa dbMbMy"
    >
      <div
        class="sc-htpNat fjMaNE"
      >
        foo1
      </div>
      <div
        class="sc-bwzfXH dYifnq"
      >
        <div
          class="sc-bxivhb dFqwLT"
        >
          <img
            class="sc-ifAKCX jLFfAD"
            src="https://via.placeholder.com/1500"
          />
        </div>
        <div
          class="sc-EHOje edBWYo"
        >
          <div
            class="sc-bZQynM fKQqKY"
          >
            <span>
              id
            </span>
            <span>
              1
            </span>
          </div>
          <div
            class="sc-bZQynM fKQqKY"
          >
            <span>
              number
            </span>
            <span>
              001
            </span>
          </div>
          <div
            class="sc-bZQynM fKQqKY"
          >
            <span>
              max CP
            </span>
            <span>
              9233
            </span>
          </div>
          <div
            class="sc-bZQynM fKQqKY"
          >
            <span>
              max HP
            </span>
            <span>
              1017
            </span>
          </div>
          <div
            class="sc-bZQynM fKQqKY"
          >
            <span>
              types
            </span>
            <span>
              type 1,  type 2
            </span>
          </div>
          <a
            href="/stylindex-sample/pokemon/1"
          >
            More Information
          </a>
        </div>
      </div>
    </div>
    <div
      class="sc-bdVaJa dbMbMy"
    >
      <div
        class="sc-htpNat fjMaNE"
      >
        foo2
      </div>
      <div
        class="sc-bwzfXH dYifnq"
      >
        <div
          class="sc-bxivhb dFqwLT"
        >
          <img
            class="sc-ifAKCX jLFfAD"
            src="https://via.placeholder.com/1500"
          />
        </div>
        <div
          class="sc-EHOje edBWYo"
        >
          <div
            class="sc-bZQynM fKQqKY"
          >
            <span>
              id
            </span>
            <span>
              2
            </span>
          </div>
          <div
            class="sc-bZQynM fKQqKY"
          >
            <span>
              number
            </span>
            <span>
              002
            </span>
          </div>
          <div
            class="sc-bZQynM fKQqKY"
          >
            <span>
              max CP
            </span>
            <span>
              9233
            </span>
          </div>
          <div
            class="sc-bZQynM fKQqKY"
          >
            <span>
              max HP
            </span>
            <span>
              1017
            </span>
          </div>
          <div
            class="sc-bZQynM fKQqKY"
          >
            <span>
              types
            </span>
            <span>
              type 1,  type 2
            </span>
          </div>
          <a
            href="/stylindex-sample/pokemon/2"
          >
            More Information
          </a>
        </div>
      </div>
    </div>
    <div
      class="sc-bdVaJa dbMbMy"
    >
      <div
        class="sc-htpNat fjMaNE"
      >
        foo3
      </div>
      <div
        class="sc-bwzfXH dYifnq"
      >
        <div
          class="sc-bxivhb dFqwLT"
        >
          <img
            class="sc-ifAKCX jLFfAD"
            src="https://via.placeholder.com/1500"
          />
        </div>
        <div
          class="sc-EHOje edBWYo"
        >
          <div
            class="sc-bZQynM fKQqKY"
          >
            <span>
              id
            </span>
            <span>
              3
            </span>
          </div>
          <div
            class="sc-bZQynM fKQqKY"
          >
            <span>
              number
            </span>
            <span>
              003
            </span>
          </div>
          <div
            class="sc-bZQynM fKQqKY"
          >
            <span>
              max CP
            </span>
            <span>
              9233
            </span>
          </div>
          <div
            class="sc-bZQynM fKQqKY"
          >
            <span>
              max HP
            </span>
            <span>
              1017
            </span>
          </div>
          <div
            class="sc-bZQynM fKQqKY"
          >
            <span>
              types
            </span>
            <span>
              type 1,  type 2
            </span>
          </div>
          <a
            href="/stylindex-sample/pokemon/3"
          >
            More Information
          </a>
        </div>
      </div>
    </div>
    <div
      class="sc-bdVaJa dbMbMy"
    >
      <div
        class="sc-htpNat fjMaNE"
      >
        foo4
      </div>
      <div
        class="sc-bwzfXH dYifnq"
      >
        <div
          class="sc-bxivhb dFqwLT"
        >
          <img
            class="sc-ifAKCX jLFfAD"
            src="https://via.placeholder.com/1500"
          />
        </div>
        <div
          class="sc-EHOje edBWYo"
        >
          <div
            class="sc-bZQynM fKQqKY"
          >
            <span>
              id
            </span>
            <span>
              4
            </span>
          </div>
          <div
            class="sc-bZQynM fKQqKY"
          >
            <span>
              number
            </span>
            <span>
              004
            </span>
          </div>
          <div
            class="sc-bZQynM fKQqKY"
          >
            <span>
              max CP
            </span>
            <span>
              9233
            </span>
          </div>
          <div
            class="sc-bZQynM fKQqKY"
          >
            <span>
              max HP
            </span>
            <span>
              1017
            </span>
          </div>
          <div
            class="sc-bZQynM fKQqKY"
          >
            <span>
              types
            </span>
            <span>
              type 1,  type 2
            </span>
          </div>
          <a
            href="/stylindex-sample/pokemon/4"
          >
            More Information
          </a>
        </div>
      </div>
    </div>
    <div
      class="sc-bdVaJa dbMbMy"
    >
      <div
        class="sc-htpNat fjMaNE"
      >
        foo5
      </div>
      <div
        class="sc-bwzfXH dYifnq"
      >
        <div
          class="sc-bxivhb dFqwLT"
        >
          <img
            class="sc-ifAKCX jLFfAD"
            src="https://via.placeholder.com/1500"
          />
        </div>
        <div
          class="sc-EHOje edBWYo"
        >
          <div
            class="sc-bZQynM fKQqKY"
          >
            <span>
              id
            </span>
            <span>
              5
            </span>
          </div>
          <div
            class="sc-bZQynM fKQqKY"
          >
            <span>
              number
            </span>
            <span>
              005
            </span>
          </div>
          <div
            class="sc-bZQynM fKQqKY"
          >
            <span>
              max CP
            </span>
            <span>
              9233
            </span>
          </div>
          <div
            class="sc-bZQynM fKQqKY"
          >
            <span>
              max HP
            </span>
            <span>
              1017
            </span>
          </div>
          <div
            class="sc-bZQynM fKQqKY"
          >
            <span>
              types
            </span>
            <span>
              type 1,  type 2
            </span>
          </div>
          <a
            href="/stylindex-sample/pokemon/5"
          >
            More Information
          </a>
        </div>
      </div>
    </div>
    <div
      class="sc-bdVaJa dbMbMy"
    >
      <div
        class="sc-htpNat fjMaNE"
      >
        foo6
      </div>
      <div
        class="sc-bwzfXH dYifnq"
      >
        <div
          class="sc-bxivhb dFqwLT"
        >
          <img
            class="sc-ifAKCX jLFfAD"
            src="https://via.placeholder.com/1500"
          />
        </div>
        <div
          class="sc-EHOje edBWYo"
        >
          <div
            class="sc-bZQynM fKQqKY"
          >
            <span>
              id
            </span>
            <span>
              6
            </span>
          </div>
          <div
            class="sc-bZQynM fKQqKY"
          >
            <span>
              number
            </span>
            <span>
              006
            </span>
          </div>
          <div
            class="sc-bZQynM fKQqKY"
          >
            <span>
              max CP
            </span>
            <span>
              9233
            </span>
          </div>
          <div
            class="sc-bZQynM fKQqKY"
          >
            <span>
              max HP
            </span>
            <span>
              1017
            </span>
          </div>
          <div
            class="sc-bZQynM fKQqKY"
          >
            <span>
              types
            </span>
            <span>
              type 1,  type 2
            </span>
          </div>
          <a
            href="/stylindex-sample/pokemon/6"
          >
            More Information
          </a>
        </div>
      </div>
    </div>
    <div
      class="sc-bdVaJa dbMbMy"
    >
      <div
        class="sc-htpNat fjMaNE"
      >
        foo7
      </div>
      <div
        class="sc-bwzfXH dYifnq"
      >
        <div
          class="sc-bxivhb dFqwLT"
        >
          <img
            class="sc-ifAKCX jLFfAD"
            src="https://via.placeholder.com/1500"
          />
        </div>
        <div
          class="sc-EHOje edBWYo"
        >
          <div
            class="sc-bZQynM fKQqKY"
          >
            <span>
              id
            </span>
            <span>
              7
            </span>
          </div>
          <div
            class="sc-bZQynM fKQqKY"
          >
            <span>
              number
            </span>
            <span>
              007
            </span>
          </div>
          <div
            class="sc-bZQynM fKQqKY"
          >
            <span>
              max CP
            </span>
            <span>
              9233
            </span>
          </div>
          <div
            class="sc-bZQynM fKQqKY"
          >
            <span>
              max HP
            </span>
            <span>
              1017
            </span>
          </div>
          <div
            class="sc-bZQynM fKQqKY"
          >
            <span>
              types
            </span>
            <span>
              type 1,  type 2
            </span>
          </div>
          <a
            href="/stylindex-sample/pokemon/7"
          >
            More Information
          </a>
        </div>
      </div>
    </div>
    <div
      class="sc-bdVaJa dbMbMy"
    >
      <div
        class="sc-htpNat fjMaNE"
      >
        foo8
      </div>
      <div
        class="sc-bwzfXH dYifnq"
      >
        <div
          class="sc-bxivhb dFqwLT"
        >
          <img
            class="sc-ifAKCX jLFfAD"
            src="https://via.placeholder.com/1500"
          />
        </div>
        <div
          class="sc-EHOje edBWYo"
        >
          <div
            class="sc-bZQynM fKQqKY"
          >
            <span>
              id
            </span>
            <span>
              8
            </span>
          </div>
          <div
            class="sc-bZQynM fKQqKY"
          >
            <span>
              number
            </span>
            <span>
              008
            </span>
          </div>
          <div
            class="sc-bZQynM fKQqKY"
          >
            <span>
              max CP
            </span>
            <span>
              9233
            </span>
          </div>
          <div
            class="sc-bZQynM fKQqKY"
          >
            <span>
              max HP
            </span>
            <span>
              1017
            </span>
          </div>
          <div
            class="sc-bZQynM fKQqKY"
          >
            <span>
              types
            </span>
            <span>
              type 1,  type 2
            </span>
          </div>
          <a
            href="/stylindex-sample/pokemon/8"
          >
            More Information
          </a>
        </div>
      </div>
    </div>
    <div
      class="sc-bdVaJa dbMbMy"
    >
      <div
        class="sc-htpNat fjMaNE"
      >
        foo9
      </div>
      <div
        class="sc-bwzfXH dYifnq"
      >
        <div
          class="sc-bxivhb dFqwLT"
        >
          <img
            class="sc-ifAKCX jLFfAD"
            src="https://via.placeholder.com/1500"
          />
        </div>
        <div
          class="sc-EHOje edBWYo"
        >
          <div
            class="sc-bZQynM fKQqKY"
          >
            <span>
              id
            </span>
            <span>
              9
            </span>
          </div>
          <div
            class="sc-bZQynM fKQqKY"
          >
            <span>
              number
            </span>
            <span>
              009
            </span>
          </div>
          <div
            class="sc-bZQynM fKQqKY"
          >
            <span>
              max CP
            </span>
            <span>
              9233
            </span>
          </div>
          <div
            class="sc-bZQynM fKQqKY"
          >
            <span>
              max HP
            </span>
            <span>
              1017
            </span>
          </div>
          <div
            class="sc-bZQynM fKQqKY"
          >
            <span>
              types
            </span>
            <span>
              type 1,  type 2
            </span>
          </div>
          <a
            href="/stylindex-sample/pokemon/9"
          >
            More Information
          </a>
        </div>
      </div>
    </div>
  </div>
</DocumentFragment>
`;
